Bling 4000 2::111A15H:22241DS:21071C8:
Bling-o-tron 4000:267T:111A15H:21071C8:12161CI:
Chen Brune d’Orage:267N:111B8L:1116143:1129R4:
Chen elekk::12141BR:11071C8:12161CI:
Chi Chi 2::121916I:22181GV:122414D:
Chi Chi 3::12281NE:12191ND:2128148:
Chi Chi 4::222316M:2128148:2128148:
Chi Chi, gruon de Chi Ji:26IT:222316M:2115H3:211BH3:
Cho elekk::122414D:1225QC:12161CI:
Chroniqueur Cho:267M:2128148:1225PJ:111371:
Dr Ion:267U:1218144:1124F9:2215198:
Dr Ion elekk::211414Q:2115198:12161CI:
Irion:267K:112CJV:2126GQ:121472:
Irion elekk::1116143:1116GQ:12161CI:
Mari 2::1126143:1225PJ:1116143:
Maîtresse de l’Ombre Kiryn:267Q:222316M:2223170:12161CI:
Sage Mari:267S:1126143:1225PJ:12161CI:
Sully 2::211513P:121A1G9:222A11C:
Sully elekk::211513P:121A1G9:12161CI:
Sully « la Saumure » McLeary:267P:111A1MD:112BCC:12181FS:
Taran elekk::21071C8:2213JM:12161CI:
Taran Zhu:267R:12171J7:12181TG:121813N:
Xu Fu, petit de Xuen:26A9:1127PH:1115H4:1127AI:
Yu'la 2::111513P:122419V:11287O:
Yu'la 3::111513P:22271RO:112B13M:
Yu’la, dragonnet de Yu’lon:26J3:11265U:122419V:11287O:
Zao 2::111A1G5:212415R:221414S:
Zao, bufflon de Niuzao:26J2:221414Q:212415R:221414S: