Algaroc:4N96:221316M:21181FS:21151DB:
Brochesang:4A8K:121B8L:1115198:12271FR:
Brochesang 2::11181BB:1115198:11171BB:
Cap)itaine Hermès mécas::2225QC:12171FR:222CAJ:
Capitaine Hermès:4871:1115H4:11151TM:121B25:
Capitaine Hermès aquatiques::11242A9:121B66:1217GO:
Capitaine Hermès bestioles::112A1FC:1125115:21134U:
Capitaine Hermès bêtes::212415S:221414S:21181S2:
Capitaine Hermès deads::12151I0:2116E8:12281H6:
Capitaine Hermès drakes::1225HD:12252N:222C16J:
Capitaine Hermès humanoïdes::1113145:1214G1:1215G1:
Capitaine Hermès magiques::1218QD:221B1L5:2128148:
Capitaine hermès mécas::2225QC:1117AI:1115198:
Capitaine Hermès éléms::1213135:1116DT:22155F:
Chitara:49SV:121B8L:1115198:12271FR:
CK-9 2::1225QC:22141RT:121CAJ:
Clampant à dos nacré:4N92:11181BB:11171BB:1127AI:
Clampant à dos nacré 2::12262EU:11271BB:1225QC:
Clique-Bielle:4N9D:221316M:22181FS:12171TN:
Clique-Bielle 2::221316M:21181FS:12171TN:
Conque opaline 2::11271BB:1215QC:2126140:
Conque opaline géante:4N99:11271BB:1215QC:1228HE:
Crépitube:4N9B:221316M:22181FS:12171TN:
Crépitube 2::221316M:21181FS:12171TN:
Crépitube 3::21181FS:21151DB:12171TN:
Delia aquatiques::11242A9:121B66:1217GO:
Delia aériens::11181TP:11141TO:11151TM:
Delia bestioles::112A1FC:11251F7:21134U:
Delia bêtes::21181S2:1223LR:11151M8:
Delia deads::12151I0:2116E8:12281H6:
Delia drakes::1225HD:12252N:222C16J:
Delia humanoïdes::1214G1:1113145:1116143:
Delia magiques::1218QD:221B1L5:22231T6:
Delia éléms::1116DT:1213135:212CAH:
Dilbert aquatiques::112A1G5:11152IR:11153T:
Dilbert bestioles::22151NI:2215C7:22151SN:
Dilbert bêtes::212415S:221820G:221414S:
Dilbert deads::12281H6:11131TB:22131TD:
Dilbert drakes::21281LP:1127PH:1128PI:
Dilbert humanoïdes::212472:22281KO:11141A5:
Dilbert magiques::2128148:2128148:11141LM:
Dilbert McClint:495D:121B8L:1115198:12271FR:
Dilbert éléms::1126DT:212CAH:112A1G8:
Délia bêtes::222415R:221414S:22278U:
Délia deads::12151I0:2126E8:22281H6:
Délia Hanako:49VC:12194L:111511C:1113135:
Délia mécas::2225QC:12171FR:1125EN:
Dévoreur électrique:4N97:11181TP:11141TO:11151TM:
Ecailleux vorace:4N94:11181TP:11141TO:11151TM:
Eddie aquatiques::222C2AI:221A15H:121B66:
Eddie bestioles::12281MO:1217CV:111610G:
Eddie drakes::12264H:111764:12167V:
Eddie Fixetout:490R:21251DB:2228134:122B1SD:
Eddie Fixetout aériens::12171TN:11151TM:11181TP:
Eddie humanoïdes::122414E:111813T:211BAD:
Eddie magiques::11141IO:211616C:221C1L3:
Eddie éléms::2123EC:1223170:11171H1:
Ellie aquatiques::1116C4:1116CH:11153T:
Ellie drakes::122414D:12281LP:122414F:
Ellie humanoïdes::122419V:1116143:122414E:
Ellie Vern:49MA:1127BM:1225PJ:1224F9:
Ellie Vern bestioles::1127BM:1217CV:22274P:
Ellie Vern magiques::111B1L5:21237R:2128148:
Ellie Vern éléms::1127136:222340:2219G7:
Engeancien de Nalaada:4N93:12171TN:11181TP:11151TM:
Entravesprit:4N95:221316M:21181FS:12171TN:
Feuillépine:4AKH:111C1JN:111C1L3:12281KO:
Fizzie aquatiques 2::22152AH:21152B0:112C2IN:
Fizzie aériens::11181TP:12171TN:11151TM:
Fizzie bestioles::111CN7:111CN7:111CN7:
Fizzie bestioles 2::121CN7:121CN7:11131NG:
Fizzie bêtes::22291HQ:22291DD:22261JV:
Fizzie deads::112AE7:21131TD:2126EF:
Fizzie humanoïdes::12281KO:212C11H:211371:
Fizzie magiques::111C1L3:21239K:2129142:
Fizzie Tintéclair:49GD:1219R4:211644:11281H0:
Fizzie éléms::1223GN:1219R4:12141FE:
Gnomivore:4N9A:221316M:21181FS:12171TN:
Grady 2::221414Q:112AE7:111780:
Grady aériens::12171TN:11151TM:11181TP:
Grady bêtes::221820G:112BL7:212415S:
Grady dead::11251MC:22181FH:11161D2:
Grady humanoïdes::21141A5:212C11H:1116143:
Grady mécas::121B8L:11271BB:1117AI:
Grady Prett:4AF7:221414Q:1118K7:111780:
Karaga:4AOG:111B17:1125H3:112BH3:
Karaga aquatiques::112A1G5:11241D7:11281D7:
Karaga aériens::12171TN:11181TP:11151TM:
Karaga bestioles::121CN7:121CN7:121CN7:
Karaga bêtes::212415S:111A9V:222415R:
Karaga deads::11131TB:11171IP:12191IR:
Karaga drakes::12167V:2215HD:22281LP:
Karaga humanoïdes::21141A5:221A1QV:22131J2:
Karaga magiques::1127H3:1125H3:112BH3:
Karaga mécas::1225QC:121CAJ:1117AI:
Karaga éléms::222312T:1223135:21181A4:
Keeyo:4AHN:1125H3:111586:111818P:
Keeyo aquatiques::111CHK:111A1G5:111CAF:
Keeyo aériens::12171TN:11151TM:11181TP:
Keeyo bestioles::122691:22151NI:2215C7:
Keeyo bêtes::222415R:11181S7:221414S:
Keeyo deads::11171IP:11131TB:11181VQ:
Keeyo drakes::21152N:11181LO:122414D:
Keeyo mécas::111B178:1117AI:12151GT:
Keeyo éléms::122913U:1214HF:1229FT:
Korval 2::22181GV:11171IP:112BH3:
Korval aquatiques::11141D7:111CAF:11281D7:
Korval Barbe-Nuit:4AFM:22181GV:111818P:112BH3:
Korval bestioles::121CN7:11181MA:122CN7:
Korval bêtes::212415S:222415R:221414S:
Korval deads::11171IP:12191IR:212C1IQ:
Korval drakes::12167V:1216140:2215HD:
Korval humanoïdes::221A1QV:121414E:22131J2:
Korval magiques::1127H3:112BH3:1125H3:
Korval mécas::1117AI:121B8L:11161QU:
Korval éléms::121C1OA:1229FT:121B16F:
Kusa:4AN6:111818P:22151M3:11151M8:
Kusa aquatiques::11153T:121354:1119MJ:
Kusa aériens::12171TN:11151TM:11181TP:
Kusa bestioles::11181MA:21168G:11134U:
Kusa bêtes::22151M3:1223LR:1118JR:
Kusa deads::211813N:22181FH:122C2AQ:
Kusa drakes::1216140:11264H:11154F:
Kusa humaoïdes::121414E:212BG2:212472:
Kusa magiques::22131T6:12187I:2125QE:
Kusa mécas::1115198:11171BB:1117AI:
Kusa éléms::222312T:22277K:11151DB:
Kwint:49OL:12271FR:22141BR:112A1GA:
Kwint aériens::12171TN:11151TM:11181TP:
Kwint bêtes::222415R:221414S:212415S:
Kwint mécas::111B178:1125QC:21241DR:
Laena bestioles::111CN7:111CN7:111CN7:
Laena mécas::121614B:2225QC:21241DR:
Leana 2::11151TM:11181TP:12171TN:
Leana Sombrevent:49NM:1113AK:11141TO:221713V:
Lozu:4A6P:121A25:212A1J1:22181GV:
Lozu aquatiques::11242A9:11141D7:11181D7:
Lozu aériens::121A25:12181HK:22181GV:
Lozu aériens 2::12141LG:12281HL:22181GV:
Lozu bêtes::212415S:222415R:221414S:
Lozu deads::11171IP:12191IR:212C1IQ:
Lozu drakes::1225HD:2226140:12167V:
Lozu humanoïdes::1113145:221A1QV:22131J2:
Lozu humanoïdes 2::1113145:221A1QV:22131J2:
Lozu magiques::1218QD:2128148:2128148:
Lozu mécas::2225QC:121B8L:1117AI:
Mastoc:4A57:1127BM:121CGR:1115HB:
Mastoc aquatiques 1::2124NG:21131D1:11152AH:
Mastoc aquatiques 2::2124NG:21131D1:112CHK:
Mastoc aériens::12171TN:11181TP:11151TM:
Mastoc bestioles::1115HB:2217GT:121CGR:
Mastoc bêtes::1126GK:212C201:2225MK:
Mastoc deads::112AE7:2117JJ:112A1MD:
Mastoc drakes::122414D:12281LP:22291R:
Mastoc magiques::2229151:11234T:11241S1:
Mastoc mécas::211A2JB:11171BB:111B2JH:
Mastoc éléms::12277K:1127136:11196S:
McClint aériens::12171TN:11151TM:11181TP:
Michael Skarn:49IG:22181GV:11171IP:112BH3:
Michael Skarn aquatiques::11241D7:11281D7:12191K1:
Michael Skarn aériens::12171TN:11151TM:11181TP:
Michael Skarn bestioles::111CN7:111CN7:121CN7:
Michael Skarn bêtes::212322G:112322H:11181S7:
Michael Skarn deads::11171IP:12191IR:212C1IQ:
Michael Skarn drakes::2226140:12167V:21281LP:
Michael Skarn humanoïdes::22131J2:221A1QV:22241LT:
Michael Skarn magiques::1127H3:112BH3:1125H3:
Michael Skarn mécas::1125198:111B178:221414Q:
Michael Skarn éléms::1123135:121C1OA:21181A4:
Pique-Dos:48MJ:1115198:121B8L:111586:
Pique-dos 2::11171BB:11181BB:111586:
Prince Zigvague:4N8U:221316M:21181FS:11281BB:
Robot doré XD:4N9C:221316M:21181FS:21151DB:
Rôdeur 2::12171TN:11151TM:11181TP:
Rôdeur sombrepiquant:4N91:12171TN:11181TP:11151TM:
Sabrecroc frénétique:4N98:12171TN:11181TP:11151TM:
Sang vicié aériens::12171TN:11151TM:11141TO:
Scruch:4N8V:21141DR:212419A:1127AI:
Silence:4N90:12171TN:11151TM:11181TP:
Sizzik:4AJP:112BH3:2125QE:11151M8:
Sizzik 2::22171I5:11151M8:112BH3:
Sizzik aquatiques::121354:11241D7:11153T:
Sizzik bestioles::111CN7:11181MA:22268G:
Sizzik bêtes::222415R:221414S:212415S:
Sizzik deads::2116E5:12251M2:11181VQ:
Sizzik drakes::1216140:12167V:111713V:
Sizzik humanoïdes::121414E:221A1QV:212BG2:
Sizzik mécas::11171BB:11181BB:1115198:
Sizzik élém::1226FT:121C1OA:22271GS:
Talia 2::111818P:121B8L:112BH3:
Talia aériens::12171TN:1125H4:112BH4:
Talia deads::211813N:22131TD:11171IP:
Talia drakes::1216140:1127PH:12167V:
Talia Frontincelle:4AP2:111818P:1115198:22152N:
Talia humanoïdes::121414E:21141A5:22131J2:
Talia magiques::22171I5:11187I:112BH3:
Talia éléms::222312T:222CAH:21181A4:
Tintouin:4AQ7:121B8L:1115198:12271FR:
Tintouin 2::1125198:122B8L:12271FR:
Unité 17:4N9H:12171TN:11181TP:11151TM:
Unité 35:4N9F:12171TN:11181TP:11151TM:
Unité 6:4N9G:221316M:12171TN:11151TM:
Unité 6 - 2::22241LT:222414E:222414E:
Unité de micro-oppression CK-9:4N9E:1225QC:221C14N:121CAJ:
Zujai:4ASQ:21264V:1127H3:22181LI:
Zujai aquatiques::11153T:11241D7:1217GO:
Zujai aériens::12171TN:11151TM:11181TP:
Zujai bêtes::122515T:221414S:212415S:
Zujai deads::221316M:112AE7:1123EA:
Zujai drakes::222414F:222814F:111818O:
Zujai humanoïdes::1116143:1116143:1116143:
Zujai magiques::1218QD:1127H3:2128148:
Zujai méca::121614B:1125QC:111B178:
Zujai éléms::11151DB:21181A4:1113135:
Zujaï bestioles::11181MA:121CN7:11251F7: